<?xml version="1.0"?>
<robot name="goal" xmlns:xacro="http://www.ros.org/wiki/xacro">


    <link name="base_link">
		<collision>
            <origin xyz="0.16 0 0.481" rpy="0.0 ${pi/10} 0.0"/>
            <geometry>
                <cylinder radius="0.05" length="1"/>
            </geometry>
        </collision>
        <visual>
            <origin xyz="0.16 0 0.481" rpy="0.0 ${pi/10} 0.0"/>
            <geometry>
                <cylinder radius="0.05" length="1"/>
            </geometry>
        </visual>
        <inertial>
            <mass value="0.2"/>
            <inertia ixx="0.1" ixy="0.1" ixz="0.1" iyy="0.1" iyz="0.1" izz="0.1"/>
        </inertial>
	</link>

    <link name="top_horizontal">
		<collision>
            <origin xyz="0.25 0.0 0.0" rpy="0.0 ${pi/2} 0.0"/>
            <geometry>
                <cylinder radius="0.044" length="0.5"/>
            </geometry>
        </collision>
        <visual>
            <origin xyz="0.25 0.0 0.0" rpy="0.0 ${pi/2} 0.0"/>
            <geometry>
                <cylinder radius="0.044" length="0.5"/>
            </geometry>
        </visual>
        <inertial>
            <mass value="0.2"/>
            <inertia ixx="0.1" ixy="0.1" ixz="0.1" iyy="0.1" iyz="0.1" izz="0.1"/>
        </inertial>
	</link>

    <link name="top_vertical1">
		<collision>
            <origin xyz="0.0 0.0 0.0" rpy="${pi/2} 0 0.0"/>
            <geometry>
                <cylinder radius="0.044" length="2.3"/>
            </geometry>
        </collision>
        <visual>
            <origin xyz="0.0 0.0 0.0" rpy="${pi/2} 0 0.0"/>
            <geometry>
                <cylinder radius="0.044" length="2.3"/>
            </geometry>
        </visual>
        <inertial>
            <mass value="0.2"/>
            <inertia ixx="0.1" ixy="0.1" ixz="0.1" iyy="0.1" iyz="0.1" izz="0.1"/>
        </inertial>
	</link>

    <link name="back_right">
		<collision>
            <origin xyz="-0.16 0 -0.481" rpy="0.0 ${pi/10} 0.0"/>
            <geometry>
                <cylinder radius="0.05" length="1"/>
            </geometry>
        </collision>
        <visual>
            <origin xyz="-0.16 0 -0.481" rpy="0.0 ${pi/10} 0.0"/>
            <geometry>
                <cylinder radius="0.05" length="1"/>
            </geometry>
        </visual>
        <inertial>
            <mass value="0.2"/>
            <inertia ixx="0.1" ixy="0.1" ixz="0.1" iyy="0.1" iyz="0.1" izz="0.1"/>
        </inertial>
	</link>

    <link name="back_left">
		<collision>
            <origin xyz="-0.16 0 -0.481" rpy="0.0 ${pi/10} 0.0"/>
            <geometry>
                <cylinder radius="0.05" length="1"/>
            </geometry>
        </collision>
        <visual>
            <origin xyz="-0.16 0 -0.481" rpy="0.0 ${pi/10} 0.0"/>
            <geometry>
                <cylinder radius="0.05" length="1"/>
            </geometry>
        </visual>
        <inertial>
            <mass value="0.2"/>
            <inertia ixx="0.1" ixy="0.1" ixz="0.1" iyy="0.1" iyz="0.1" izz="0.1"/>
        </inertial>
	</link>

    <link name="top_vertical2">
		<collision>
            <origin xyz="0.0 0.0 0.0" rpy="${pi/2} 0 0.0"/>
            <geometry>
                <cylinder radius="0.044" length="2.3"/>
            </geometry>
        </collision>
        <visual>
            <origin xyz="0.0 0.0 0.0" rpy="${pi/2} 0 0.0"/>
            <geometry>
                <cylinder radius="0.044" length="2.3"/>
            </geometry>
        </visual>
        <inertial>
            <mass value="0.2"/>
            <inertia ixx="0.1" ixy="0.1" ixz="0.1" iyy="0.1" iyz="0.1" izz="0.1"/>
        </inertial>
	</link>

    <link name="top_right">
		<collision>
            <origin xyz="-0.25 0.0 0.0" rpy="${pi/2} 0 ${pi/2}"/>
            <geometry>
                <cylinder radius="0.044" length="0.6"/>
            </geometry>
        </collision>
        <visual>
            <origin xyz="-0.25 0.0 0.0" rpy="${pi/2} 0 ${pi/2}"/>
            <geometry>
                <cylinder radius="0.044" length="0.6"/>
            </geometry>
        </visual>
        <inertial>
            <mass value="0.2"/>
            <inertia ixx="0.1" ixy="0.1" ixz="0.1" iyy="0.1" iyz="0.1" izz="0.1"/>
        </inertial>
	</link>

    <link name="top_left">
		<collision>
            <origin xyz="-0.25 0.0 0.0" rpy="${pi/2} 0 ${pi/2}"/>
            <geometry>
                <cylinder radius="0.044" length="0.6"/>
            </geometry>
        </collision>
        <visual>
            <origin xyz="-0.25 0.0 0.0" rpy="${pi/2} 0 ${pi/2}"/>
            <geometry>
                <cylinder radius="0.044" length="0.6"/>
            </geometry>
        </visual>
        <inertial>
            <mass value="0.2"/>
            <inertia ixx="0.1" ixy="0.1" ixz="0.1" iyy="0.1" iyz="0.1" izz="0.1"/>
        </inertial>
	</link>

    <link name="right">
		<collision>
            <origin xyz="0 0.0 -0.45" rpy="0 0 0"/>
            <geometry>
                <cylinder radius="0.07" length="0.96"/>
            </geometry>
        </collision>
        <visual>
            <origin xyz="0 0.0 -0.45" rpy="0 0 0"/>
            <geometry>
                <cylinder radius="0.07" length="0.96"/>
            </geometry>
        </visual>
        <inertial>
            <mass value="0.2"/>
            <inertia ixx="0.1" ixy="0.1" ixz="0.1" iyy="0.1" iyz="0.1" izz="0.1"/>
        </inertial>
	</link>

    <link name="left">
		<collision>
            <origin xyz="0 0.0 -0.45" rpy="0 0 0"/>
            <geometry>
                <cylinder radius="0.07" length="0.96"/>
            </geometry>
        </collision>
        <visual>
            <origin xyz="0 0.0 -0.45" rpy="0 0 0"/>
            <geometry>
                <cylinder radius="0.07" length="0.96"/>
            </geometry>
        </visual>
        <inertial>
            <mass value="0.2"/>
            <inertia ixx="0.1" ixy="0.1" ixz="0.1" iyy="0.1" iyz="0.1" izz="0.1"/>
        </inertial>
	</link>


    <joint name="base_with_top_hor_j" type="fixed">
        <origin xyz="0.28 0.0 0.93" rpy="0.0 0 0.0"/>
        <parent link="base_link"/>
        <child link="top_horizontal"/>
        <axis xyz="0.0 0.0 1"/>
    </joint>

    <joint name="top_hor_with_top_vert1_j" type="fixed">
        <origin xyz="0.0 0.0 0.0" rpy="0.0 0 0.0"/>
        <parent link="top_horizontal"/>
        <child link="top_vertical1"/>
        <axis xyz="0.0 0.0 1"/>
    </joint>

    <joint name="top_vert1_with_back_right_j" type="fixed">
        <origin xyz="0.0 0.96 0.0" rpy="0.0 0 0.0"/>
        <parent link="top_vertical1"/>
        <child link="back_right"/>
        <axis xyz="0.0 0.0 1"/>
    </joint>

    <joint name="top_vert1_with_back_left_j" type="fixed">
        <origin xyz="0.0 -0.96 0.0" rpy="0.0 0 0.0"/>
        <parent link="top_vertical1"/>
        <child link="back_left"/>
        <axis xyz="0.0 0.0 1"/>
    </joint>

    <joint name="top_hor_with_top_vert2_j" type="fixed">
        <origin xyz="0.5 0.0 0.0" rpy="0.0 0 0.0"/>
        <parent link="top_horizontal"/>
        <child link="top_vertical2"/>
        <axis xyz="0.0 0.0 1"/>
    </joint>

    <joint name="top_vert2_with_top_right_j" type="fixed">
        <origin xyz="0.0 1.11 0.0" rpy="0.0 0 0.0"/>
        <parent link="top_vertical2"/>
        <child link="top_right"/>
        <axis xyz="0.0 0.0 1"/>
    </joint>

    <joint name="top_vert2_with_top_left_j" type="fixed">
        <origin xyz="0.0 -1.11 0.0" rpy="0.0 0 0.0"/>
        <parent link="top_vertical2"/>
        <child link="top_left"/>
        <axis xyz="0.0 0.0 1"/>
    </joint>
    
    <joint name="top_vert2_with_right_j" type="fixed">
        <origin xyz="0.0 1.11 0.0" rpy="0.0 0 0.0"/>
        <parent link="top_vertical2"/>
        <child link="right"/>
        <axis xyz="0.0 0.0 1"/>
    </joint>

    <joint name="top_vert2_with_left_j" type="fixed">
        <origin xyz="0.0 -1.11 0.0" rpy="0.0 0 0.0"/>
        <parent link="top_vertical2"/>
        <child link="left"/>
        <axis xyz="0.0 0.0 1"/>
    </joint>

    <gazebo reference="base_link">
        <material>Gazebo/Orange</material>
    </gazebo>
    
    <gazebo reference="top_horizontal">
        <material>Gazebo/Orange</material>
    </gazebo>

    <gazebo reference="top_vertical1">
        <material>Gazebo/Orange</material>
    </gazebo>

    <gazebo reference="back_right">
        <material>Gazebo/Orange</material>
    </gazebo>

    <gazebo reference="back_left">
        <material>Gazebo/Orange</material>
    </gazebo>

    <gazebo reference="top_vertical2">
        <material>Gazebo/Orange</material>
    </gazebo>

    <gazebo reference="top_right">
        <material>Gazebo/Orange</material>
    </gazebo>

    <gazebo reference="top_left">
        <material>Gazebo/Orange</material>
    </gazebo>

    <gazebo reference="right">
        <material>Gazebo/Orange</material>
    </gazebo>

    <gazebo reference="left">
        <material>Gazebo/Orange</material>
    </gazebo>

    <gazebo>
        <plugin filename="libhector_gazebo_ros_imu.so" name="gazebo_ros_imu">
          <bodyName>right</bodyName>
          <updateRate>50</updateRate>
          <serviceName>/g11/imu_service</serviceName>
          <topicName>/g11/imu</topicName>
          <gaussianNoise>0</gaussianNoise>
          <xyzOffset>0 0 0</xyzOffset>
          <rpyOffset>0 0 0</rpyOffset>
        </plugin>     
    </gazebo> 

    <gazebo>
        <plugin filename="libhector_gazebo_ros_imu.so" name="gazebo_ros_imu">
          <bodyName>left</bodyName>
          <updateRate>50</updateRate>
          <serviceName>/g12/imu_service</serviceName>
          <topicName>/g12/imu</topicName>
          <gaussianNoise>0</gaussianNoise>
          <xyzOffset>0 0 0</xyzOffset>
          <rpyOffset>0 0 0</rpyOffset>
        </plugin>     
    </gazebo>
    
</robot>